[{
    "background_colour": "#f38f60",
    "name": "Supervisor",
    "id": 2,
    "text_colour": "#000000"
}, {
    "background_colour": "#f5ffa2",
    "name": "Checkouts",
    "id": 1,
    "text_colour": "#000000"
}, {
    "background_colour": "#bf8ef1",
    "name": "Stacker",
    "id": 3,
    "text_colour": "#000000"
}]
